<?xml version='1.0' encoding='utf-8'?>
<svg xmlns="http://www.w3.org/2000/svg" width="100%" height="100%" viewBox="0 0 27.0 15.0">
  <rect x="0.5" y="0.5" width="26.0" height="14.0" rx="2" ry="2" id="shield" style="fill:#eeccd2;stroke:#c97a8b;stroke-width:1;"/>
</svg>
