<?xml version='1.0' encoding='utf-8'?>
<svg xmlns="http://www.w3.org/2000/svg" width="100%" height="100%" viewBox="0 0 57.0 33.0">
  <rect x="0.5" y="0.5" width="56.0" height="32.0" rx="2" ry="2" id="shield" style="fill:#f6e9d7;stroke:#a6967e;stroke-width:1;"/>
</svg>
