<?xml version='1.0' encoding='utf-8'?>
<svg xmlns="http://www.w3.org/2000/svg" width="100%" height="100%" viewBox="0 0 45.0 33.0">
  <rect x="0.5" y="0.5" width="44.0" height="32.0" rx="2" ry="2" id="shield" style="fill:#f8f8da;stroke:#a7a799;stroke-width:1;"/>
</svg>
