<?xml version='1.0' encoding='utf-8'?>
<svg xmlns="http://www.w3.org/2000/svg" width="100%" height="100%" viewBox="0 0 74.0 36.0">
  <rect x="0.5" y="0.5" width="73.0" height="35.0" rx="2" ry="2" id="shield" style="fill:#f4f4f4;stroke:#ababab;stroke-width:1;"/>
</svg>
