<?xml version='1.0' encoding='utf-8'?>
<svg xmlns="http://www.w3.org/2000/svg" width="100%" height="100%" viewBox="0 0 89.0 39.0">
  <rect x="0.5" y="0.5" width="88.0" height="38.0" rx="2" ry="2" id="shield" style="fill:#f3d7ce;stroke:#d08f72;stroke-width:1;"/>
</svg>
