<?xml version='1.0' encoding='utf-8'?>
<svg xmlns:dc="http://purl.org/dc/elements/1.1/" xmlns:cc="http://creativecommons.org/ns#" xmlns:rdf="http://www.w3.org/1999/02/22-rdf-syntax-ns#" xmlns="http://www.w3.org/2000/svg" version="1.1" width="100%" height="100%" viewBox="0 0 14 14" id="svg2">
  <metadata id="metadata8">
    <rdf:RDF>
      <cc:Work rdf:about="">
        <dc:format>image/svg+xml</dc:format>
        <dc:type rdf:resource="http://purl.org/dc/dcmitype/StillImage"/>
        <dc:title/>
      </cc:Work>
    </rdf:RDF>
  </metadata>
  <defs id="defs6"/>
  <rect width="14" height="14" x="0" y="0" id="canvas" style="fill:none;stroke:none;visibility:hidden"/>
  <path d="M 1,7 1,3 4.9661017,5.0508475 9,3 9,7 z" id="halo" style="fill:#ffffff;stroke:#ffffff;stroke-width:2.0;opacity:0.3;" transform="translate(2.0,2.0)"/>
<path d="M 1,7 1,3 4.9661017,5.0508475 9,3 9,7 z" id="saddle" style="fill:#4f4f4f;fill-opacity:1" transform="translate(2.0,2.0)"/>
</svg>
